-------------------------------------------------------------------------------
Test set: com.inelpandzic.CommandLineArgsParserTest
-------------------------------------------------------------------------------
Tests run: 13, Failures: 0, Errors: 0, Skipped: 0, Time elapsed: 0.051 s - in com.inelpandzic.CommandLineArgsParserTest
